FPID|Rest|Restaurant|20200522|20200522|20200527|104934|2.00|2.00||
FPSUM|DB Avila Mango Dine In|1130|DB Avila Mango Dine In|1130|208.86|20.89|0|0|0.00|0|0.00|2|4|0|0|0|0.00|0.00|0.00|0|0|0|0.00|0|0.00|0|0.00|0|229.75|2|229.75|2|0.00|0|0.00|0|0.00|0.00|14|59|678.00|-469.14|0.00|0.00|-260.28|0.00|0.00|0.00|0.00|0.00|0.00|0.00|0.00
FPSUM|DB Avila Mango Dine In|1130|DB Avila Mango Dine In|1130|242.14|0.00|0|0|0.00|0|0.00|1|1|0|0|0|0.00|0.00|0.00|0|0|0|0.00|0|0.00|0|0.00|0|242.15|1|242.15|1|0.00|0|0.00|0|0.00|0.00|13|53|339.00|-96.86|0.00|0.00|145.28|0.00|0.00|0.00|0.00|0.00|0.00|0.00|0.00
FPSUM|DB Avila Mango Dine In|1130|DB Avila Mango Dine In|1130|242.14|24.21|0|0|0.00|0|0.00|1|1|0|0|0|0.00|0.00|0.00|0|0|0|0.00|0|0.00|0|0.00|0|266.35|1|266.35|1|0.00|0|0.00|0|0.00|0.00|12|49|339.00|-96.86|0.00|0.00|145.28|0.00|0.00|0.00|0.00|0.00|0.00|0.00|0.00
FPSUM|DB Avila Mango Dine In|1130|DB Avila Mango Dine In|1130|668.75|66.88|0|0|0.00|0|0.00|3|5|0|0|0|0.00|0.00|0.00|0|0|0|0.00|0|0.00|0|0.00|0|735.60|3|735.60|3|0.00|0|0.00|0|0.00|0.00|16|68|959.00|-290.25|0.00|0.00|378.50|0.00|0.00|0.00|0.00|0.00|0.00|0.00|0.00
FPSUM|DB Avila Mango Dine In|1130|DB Avila Mango Dine In|1130|210.00|21.00|0|0|0.00|0|0.00|1|2|0|0|0|0.00|0.00|0.00|0|0|0|0.00|0|0.00|0|0.00|0|231.00|1|231.00|1|0.00|0|0.00|0|0.00|0.00|13|54|294.00|-84.00|0.00|0.00|126.00|0.00|0.00|0.00|0.00|0.00|0.00|0.00|0.00
FPSUM|DB Avila Mango Dine In|1130|DB Avila Mango Dine In|1130|565.18|187.27|0|0|0.00|0|67.82|2|3|0|0|0|0.00|0.00|0.00|0|0|0|0.00|0|0.00|0|0.00|0|820.25|2|820.25|2|0.00|0|0.00|0|0.00|0.00|10|43|565.18|0.00|0.00|0.00|565.18|0.00|0.00|0.00|0.00|0.00|0.00|0.00|0.00
FPSUM|DB Avila Mango Dine In|1130|DB Avila Mango Dine In|1130|262.86|26.29|0|0|0.00|0|0.00|2|2|0|0|0|0.00|0.00|0.00|0|0|0|0.00|0|0.00|0|0.00|0|289.15|2|289.15|2|0.00|0|0.00|0|0.00|0.00|11|48|678.00|-415.14|0.00|0.00|-152.28|0.00|0.00|0.00|0.00|0.00|0.00|0.00|0.00
FPSUM|DB Avila Mango Dine In|1130|DB Avila Mango Dine In|1130|242.14|0.00|0|0|0.00|0|0.00|1|1|0|0|0|0.00|0.00|0.00|0|0|0|0.00|0|0.00|0|0.00|0|242.15|1|242.15|1|0.00|0|0.00|0|0.00|0.00|16|65|339.00|-96.86|0.00|0.00|145.28|0.00|0.00|0.00|0.00|0.00|0.00|0.00|0.00
FPSUM|DB Avila Mango Dine In|1130|DB Avila Mango Dine In|1130|0.00|0.00|-339|4|0.00|0|0.00|1|2|0|0|0|0.00|0.00|0.00|0|0|0|0.00|0|0.00|0|0.00|0|0.00|2|0.00|2|0.00|0|0.00|0|0.00|-24.21|15|61|0.00|0.00|0.00|0.00|0.00|0.00|0.00|0.00|0.00|0.00|0.00|0.00|0.00
FPSUM|DB Avila Mango Dine In|1130|DB Avila Mango Dine In|1130|0.00|0.00|-339|4|0.00|0|0.00|1|2|0|0|0|0.00|0.00|0.00|0|0|0|0.00|0|0.00|0|0.00|0|0.00|2|0.00|2|0.00|0|0.00|0|0.00|-24.21|12|51|0.00|0.00|0.00|0.00|0.00|0.00|0.00|0.00|0.00|0.00|0.00|0.00|0.00
FPSUM|DB Avila Mango Dine In|1130|DB Avila Mango Dine In|1130|0.00|0.00|0|0|-346.00|4|0.00|1|2|0|0|0|0.00|0.00|0.00|0|0|0|0.00|0|0.00|0|0.00|0|0.00|2|0.00|2|0.00|0|0.00|0|0.00|-24.71|15|63|0.00|0.00|0.00|0.00|0.00|0.00|0.00|0.00|0.00|0.00|0.00|0.00|0.00
FPSUM|DB Avila Mango Dine In|1130|DB Avila Mango Dine In|1130|200.71|199.27|-339|4|0.00|0|0.00|2|3|0|0|0|0.00|0.00|0.00|0|0|0|0.00|0|0.00|0|0.00|0|400.00|3|400.00|3|0.00|0|0.00|0|0.00|-24.21|12|50|281.00|-80.29|0.00|0.00|120.42|0.00|0.00|0.00|0.00|0.00|0.00|0.00|0.00
FPSUM|DB Avila Mango Dine In|1130|DB Avila Mango Dine In|1130|-302.68|-30.27|-339|4|0.00|0|0.00|0|0|0|0|0|0.00|0.00|0.00|0|0|0|0.00|0|0.00|0|0.00|0|-332.95|1|-332.95|1|0.00|0|0.00|0|0.00|-30.27|17|69|-339.00|36.32|0.00|0.00|-266.36|0.00|0.00|0.00|0.00|0.00|0.00|0.00|0.00
FPSUM|DB Avila Mango Dine In|1130|DB Avila Mango Dine In|1130|665.18|36.25|0|0|0.00|0|0.00|2|3|0|0|0|0.00|0.00|0.00|0|0|0|0.00|0|0.00|0|0.00|0|701.45|2|701.45|2|0.00|0|0.00|0|0.00|0.00|17|72|745.00|-79.82|0.00|0.00|585.36|0.00|0.00|0.00|0.00|0.00|0.00|0.00|0.00
FPSUM|DB Avila Mango Dine In|1130|DB Avila Mango Dine In|1130|520.01|52.00|0|0|0.00|0|62.39|2|3|0|0|0|0.00|0.00|0.00|0|0|0|0.00|0|0.00|0|0.00|1|634.40|2|634.40|2|0.00|0|0.00|0|0.00|0.00|10|41|763.39|-243.38|0.00|0.00|276.63|0.00|0.00|0.00|0.00|0.00|0.00|0.00|0.00
FPSUM|DB Avila Mango Dine In|1130|DB Avila Mango Dine In|1130|605.36|227.59|0|0|0.00|0|0.00|2|5|0|0|0|0.00|0.00|0.00|0|0|0|0.00|0|0.00|0|0.00|0|832.95|2|832.95|2|0.00|0|0.00|0|0.00|0.00|17|70|678.00|-72.64|0.00|0.00|532.72|0.00|0.00|0.00|0.00|0.00|0.00|0.00|0.00
FPSUM|DB Avila Mango Dine In|1130|DB Avila Mango Dine In|1130|302.68|0.00|0|0|0.00|0|0.00|1|2|0|0|0|0.00|0.00|0.00|0|0|0|0.00|0|0.00|0|0.00|0|302.70|1|302.70|1|0.00|0|0.00|0|0.00|0.00|18|74|339.00|-36.32|0.00|0.00|266.36|0.00|0.00|0.00|0.00|0.00|0.00|0.00|0.00
FPSUM|DB Avila Mango Dine In|1130|DB Avila Mango Dine In|1130|0.00|0.00|0|0|-339.00|4|0.00|1|1|0|0|0|0.00|0.00|0.00|0|0|0|0.00|0|0.00|0|0.00|0|0.00|2|0.00|2|0.00|0|0.00|0|0.00|-24.21|12|52|0.00|0.00|0.00|0.00|0.00|0.00|0.00|0.00|0.00|0.00|0.00|0.00|0.00
FPSUM|DB Avila Mango Dine In|1130|DB Avila Mango Dine In|1130|90.80|9.08|0|0|0.00|0|0.00|1|2|0|0|0|0.00|0.00|0.00|0|0|0|0.00|0|0.00|0|0.00|0|99.90|1|99.90|1|0.00|0|0.00|0|0.00|0.00|16|67|339.00|-248.20|0.00|0.00|-157.40|0.00|0.00|0.00|0.00|0.00|0.00|0.00|0.00
FPSUM|DB Avila Mango Dine In|1130|DB Avila Mango Dine In|1130|242.14|24.21|0|0|0.00|0|0.00|1|2|0|0|0|0.00|0.00|0.00|0|0|0|0.00|0|0.00|0|0.00|0|266.35|1|266.35|1|0.00|0|0.00|0|0.00|0.00|16|66|339.00|-96.86|0.00|0.00|145.28|0.00|0.00|0.00|0.00|0.00|0.00|0.00|0.00
FPSUM|DB Avila Mango Dine In|1130|DB Avila Mango Dine In|1130|605.36|30.27|-30.27|1|0.00|0|72.64|2|2|0|0|0|0.00|0.00|0.00|0|0|0|0.00|0|0.00|0|0.00|0|708.25|2|339.00|1|0.00|0|0.00|0|0.00|-30.27|11|45|605.36|0.00|0.00|0.00|605.36|0.00|0.00|0.00|0.00|0.00|0.00|0.00|0.00
FPSUM|DB Avila Mango Dine In|1130|DB Avila Mango Dine In|1130|169.50|16.95|0|0|0.00|0|0.00|1|1|0|0|0|0.00|0.00|0.00|0|0|0|0.00|0|0.00|0|0.00|0|186.45|1|555.70|2|0.00|0|0.00|0|0.00|0.00|11|47|339.00|-169.50|0.00|0.00|0.00|0.00|0.00|0.00|0.00|0.00|0.00|0.00|0.00
FPSUM|DB Avila Mango Dine In|1130|DB Avila Mango Dine In|1130|293.75|29.38|-302.68|4|0.00|0|35.25|2|4|0|0|0|0.00|0.00|0.00|0|0|0|0.00|0|0.00|0|0.00|0|358.40|3|358.40|3|0.00|0|0.00|0|0.00|-66.59|10|42|302.68|-8.93|0.00|0.00|284.82|0.00|0.00|0.00|0.00|0.00|0.00|0.00|0.00
FPSUM|DB Avila Mango Dine In|1130|DB Avila Mango Dine In|1130|230.86|23.09|0|0|0.00|0|0.00|1|2|0|0|0|0.00|0.00|0.00|0|0|0|0.00|0|0.00|0|0.00|0|253.95|1|253.95|1|0.00|0|0.00|0|0.00|0.00|14|60|339.00|-108.14|0.00|0.00|122.72|0.00|0.00|0.00|0.00|0.00|0.00|0.00|0.00
FPSUM|DB Avila Mango Dine In|1130|DB Avila Mango Dine In|1130|380.71|50.27|0|0|0.00|0|0.00|2|3|0|0|0|0.00|0.00|0.00|0|0|0|0.00|0|0.00|0|0.00|0|431.00|2|431.00|2|0.00|0|0.00|0|0.00|0.00|15|62|533.00|-152.29|0.00|0.00|228.42|0.00|0.00|0.00|0.00|0.00|0.00|0.00|0.00
FPSUM|DB Avila Mango Dine In|1130|DB Avila Mango Dine In|1130|0.00|0.00|0|0|-302.68|4|0.00|1|1|0|0|0|0.00|0.00|0.00|0|0|0|0.00|0|0.00|0|339.00|1|0.00|2|0.00|2|0.00|0|0.00|0|0.00|-66.59|10|44|0.00|0.00|0.00|0.00|0.00|0.00|0.00|0.00|0.00|0.00|0.00|0.00|0.00
FPSUM|DB Avila Mango Dine In|1130|DB Avila Mango Dine In|1130|0.00|0.00|0|0|-339.00|4|0.00|1|2|0|0|0|0.00|0.00|0.00|0|0|0|0.00|0|0.00|0|0.00|0|0.00|2|0.00|2|0.00|0|0.00|0|0.00|-30.27|17|71|0.00|0.00|0.00|0.00|0.00|0.00|0.00|0.00|0.00|0.00|0.00|0.00|0.00
FPOT|DB Avila Mango Dine In|1130|DB Avila Mango Dine In|1130|Senior Citizen|8|Senior Citizen|8|210.00|21.00|0.00|0|0.00|0|0.00|1|2|0|0|0|0.00|0.00|0.00|0|0|0|0.00|0|0.00|0|0.00|0|231.00|1|231.00|1|0.00|0|0.00|0|0.00|0.00|13|54|294.00|-84.00|0.00|0.00|126.00|0.00|0.00|0.00|0.00|0.00|0.00|0.00|0.00
FPOT|DB Avila Mango Dine In|1130|DB Avila Mango Dine In|1130|PWD|10|PWD|10|242.14|24.21|0.00|0|0.00|0|0.00|1|2|0|0|0|0.00|0.00|0.00|0|0|0|0.00|0|0.00|0|0.00|0|266.35|1|266.35|1|0.00|0|0.00|0|0.00|0.00|16|66|339.00|-96.86|0.00|0.00|145.28|0.00|0.00|0.00|0.00|0.00|0.00|0.00|0.00
FPOT|DB Avila Mango Dine In|1130|DB Avila Mango Dine In|1130|Zero Rated|9|Zero Rated|9|302.68|0.00|0.00|0|0.00|0|0.00|1|2|0|0|0|0.00|0.00|0.00|0|0|0|0.00|0|0.00|0|0.00|0|302.70|1|302.70|1|0.00|0|0.00|0|0.00|0.00|18|74|339.00|-36.32|0.00|0.00|266.36|0.00|0.00|0.00|0.00|0.00|0.00|0.00|0.00
FPOT|DB Avila Mango Dine In|1130|DB Avila Mango Dine In|1130|Standard|7|Standard|7|0.00|0.00|0.00|0|-302.68|4|0.00|1|1|0|0|0|0.00|0.00|0.00|0|0|0|0.00|0|0.00|0|339.00|1|0.00|2|0.00|2|0.00|0|0.00|0|0.00|-66.59|10|44|0.00|0.00|0.00|0.00|0.00|0.00|0.00|0.00|0.00|0.00|0.00|0.00|0.00
FPOT|DB Avila Mango Dine In|1130|DB Avila Mango Dine In|1130|Zero Rated|9|Zero Rated|9|668.75|66.88|0.00|0|0.00|0|0.00|3|5|0|0|0|0.00|0.00|0.00|0|0|0|0.00|0|0.00|0|0.00|0|735.60|3|735.60|3|0.00|0|0.00|0|0.00|0.00|16|68|959.00|-290.25|0.00|0.00|378.50|0.00|0.00|0.00|0.00|0.00|0.00|0.00|0.00
FPOT|DB Avila Mango Dine In|1130|DB Avila Mango Dine In|1130|PWD|10|PWD|10|0.00|0.00|-339.00|4|0.00|0|0.00|1|2|0|0|0|0.00|0.00|0.00|0|0|0|0.00|0|0.00|0|0.00|0|0.00|2|0.00|2|0.00|0|0.00|0|0.00|-24.21|15|61|0.00|0.00|0.00|0.00|0.00|0.00|0.00|0.00|0.00|0.00|0.00|0.00|0.00
FPOT|DB Avila Mango Dine In|1130|DB Avila Mango Dine In|1130|Zero Rated|9|Zero Rated|9|-302.68|-30.27|-339.00|4|0.00|0|0.00|0|0|0|0|0|0.00|0.00|0.00|0|0|0|0.00|0|0.00|0|0.00|0|-332.95|1|-332.95|1|0.00|0|0.00|0|0.00|-30.27|17|69|-339.00|36.32|0.00|0.00|-266.36|0.00|0.00|0.00|0.00|0.00|0.00|0.00|0.00
FPOT|DB Avila Mango Dine In|1130|DB Avila Mango Dine In|1130|PWD|10|PWD|10|242.14|0.00|0.00|0|0.00|0|0.00|1|1|0|0|0|0.00|0.00|0.00|0|0|0|0.00|0|0.00|0|0.00|0|242.15|1|242.15|1|0.00|0|0.00|0|0.00|0.00|16|65|339.00|-96.86|0.00|0.00|145.28|0.00|0.00|0.00|0.00|0.00|0.00|0.00|0.00
FPOT|DB Avila Mango Dine In|1130|DB Avila Mango Dine In|1130|Senior Citizen|8|Senior Citizen|8|200.71|199.27|-339.00|4|0.00|0|0.00|2|3|0|0|0|0.00|0.00|0.00|0|0|0|0.00|0|0.00|0|0.00|0|400.00|3|400.00|3|0.00|0|0.00|0|0.00|-24.21|12|50|281.00|-80.29|0.00|0.00|120.42|0.00|0.00|0.00|0.00|0.00|0.00|0.00|0.00
FPOT|DB Avila Mango Dine In|1130|DB Avila Mango Dine In|1130|Senior Citizen|8|Senior Citizen|8|262.86|26.29|0.00|0|0.00|0|0.00|2|2|0|0|0|0.00|0.00|0.00|0|0|0|0.00|0|0.00|0|0.00|0|289.15|2|289.15|2|0.00|0|0.00|0|0.00|0.00|11|48|678.00|-415.14|0.00|0.00|-152.28|0.00|0.00|0.00|0.00|0.00|0.00|0.00|0.00
FPOT|DB Avila Mango Dine In|1130|DB Avila Mango Dine In|1130|Zero Rated|9|Zero Rated|9|605.36|227.59|0.00|0|0.00|0|0.00|2|5|0|0|0|0.00|0.00|0.00|0|0|0|0.00|0|0.00|0|0.00|0|832.95|2|832.95|2|0.00|0|0.00|0|0.00|0.00|17|70|678.00|-72.64|0.00|0.00|532.72|0.00|0.00|0.00|0.00|0.00|0.00|0.00|0.00
FPOT|DB Avila Mango Dine In|1130|DB Avila Mango Dine In|1130|Standard|7|Standard|7|605.36|30.27|-30.27|1|0.00|0|72.64|2|2|0|0|0|0.00|0.00|0.00|0|0|0|0.00|0|0.00|0|0.00|0|708.25|2|339.00|1|0.00|0|0.00|0|0.00|-30.27|11|45|605.36|0.00|0.00|0.00|605.36|0.00|0.00|0.00|0.00|0.00|0.00|0.00|0.00
FPOT|DB Avila Mango Dine In|1130|DB Avila Mango Dine In|1130|Standard|7|Standard|7|565.18|187.27|0.00|0|0.00|0|67.82|2|3|0|0|0|0.00|0.00|0.00|0|0|0|0.00|0|0.00|0|0.00|0|820.25|2|820.25|2|0.00|0|0.00|0|0.00|0.00|10|43|565.18|0.00|0.00|0.00|565.18|0.00|0.00|0.00|0.00|0.00|0.00|0.00|0.00
FPOT|DB Avila Mango Dine In|1130|DB Avila Mango Dine In|1130|Senior Citizen|8|Senior Citizen|8|169.50|16.95|0.00|0|0.00|0|0.00|1|1|0|0|0|0.00|0.00|0.00|0|0|0|0.00|0|0.00|0|0.00|0|186.45|1|186.45|1|0.00|0|0.00|0|0.00|0.00|11|47|339.00|-169.50|0.00|0.00|0.00|0.00|0.00|0.00|0.00|0.00|0.00|0.00|0.00
FPOT|DB Avila Mango Dine In|1130|DB Avila Mango Dine In|1130|Senior Citizen|8|Senior Citizen|8|0.00|0.00|0.00|0|-339.00|4|0.00|1|1|0|0|0|0.00|0.00|0.00|0|0|0|0.00|0|0.00|0|0.00|0|0.00|2|0.00|2|0.00|0|0.00|0|0.00|-24.21|12|52|0.00|0.00|0.00|0.00|0.00|0.00|0.00|0.00|0.00|0.00|0.00|0.00|0.00
FPOT|DB Avila Mango Dine In|1130|DB Avila Mango Dine In|1130|Standard|7|Standard|7|293.75|29.38|-302.68|4|0.00|0|35.25|2|4|0|0|0|0.00|0.00|0.00|0|0|0|0.00|0|0.00|0|0.00|0|358.40|3|358.40|3|0.00|0|0.00|0|0.00|-66.59|10|42|302.68|-8.93|0.00|0.00|284.82|0.00|0.00|0.00|0.00|0.00|0.00|0.00|0.00
FPOT|DB Avila Mango Dine In|1130|DB Avila Mango Dine In|1130|Zero Rated|9|Zero Rated|9|90.80|9.08|0.00|0|0.00|0|0.00|1|2|0|0|0|0.00|0.00|0.00|0|0|0|0.00|0|0.00|0|0.00|0|99.90|1|99.90|1|0.00|0|0.00|0|0.00|0.00|16|67|339.00|-248.20|0.00|0.00|-157.40|0.00|0.00|0.00|0.00|0.00|0.00|0.00|0.00
FPOT|DB Avila Mango Dine In|1130|DB Avila Mango Dine In|1130|Senior Citizen|8|Senior Citizen|8|242.14|0.00|0.00|0|0.00|0|0.00|1|1|0|0|0|0.00|0.00|0.00|0|0|0|0.00|0|0.00|0|0.00|0|242.15|1|242.15|1|0.00|0|0.00|0|0.00|0.00|13|53|339.00|-96.86|0.00|0.00|145.28|0.00|0.00|0.00|0.00|0.00|0.00|0.00|0.00
FPOT|DB Avila Mango Dine In|1130|DB Avila Mango Dine In|1130|Senior Citizen|8|Senior Citizen|8|242.14|24.21|0.00|0|0.00|0|0.00|1|1|0|0|0|0.00|0.00|0.00|0|0|0|0.00|0|0.00|0|0.00|0|266.35|1|266.35|1|0.00|0|0.00|0|0.00|0.00|12|49|339.00|-96.86|0.00|0.00|145.28|0.00|0.00|0.00|0.00|0.00|0.00|0.00|0.00
FPOT|DB Avila Mango Dine In|1130|DB Avila Mango Dine In|1130|PWD|10|PWD|10|0.00|0.00|0.00|0|-346.00|4|0.00|1|2|0|0|0|0.00|0.00|0.00|0|0|0|0.00|0|0.00|0|0.00|0|0.00|2|0.00|2|0.00|0|0.00|0|0.00|-24.71|15|63|0.00|0.00|0.00|0.00|0.00|0.00|0.00|0.00|0.00|0.00|0.00|0.00|0.00
FPOT|DB Avila Mango Dine In|1130|DB Avila Mango Dine In|1130|Zero Rated|9|Zero Rated|9|0.00|0.00|0.00|0|-339.00|4|0.00|1|2|0|0|0|0.00|0.00|0.00|0|0|0|0.00|0|0.00|0|0.00|0|0.00|2|0.00|2|0.00|0|0.00|0|0.00|-30.27|17|71|0.00|0.00|0.00|0.00|0.00|0.00|0.00|0.00|0.00|0.00|0.00|0.00|0.00
FPOT|DB Avila Mango Dine In|1130|DB Avila Mango Dine In|1130|Standard|7|Standard|7|520.01|52.00|0.00|0|0.00|0|62.39|2|3|0|0|0|0.00|0.00|0.00|0|0|0|0.00|0|0.00|0|0.00|1|634.40|2|634.40|2|0.00|0|0.00|0|0.00|0.00|10|41|763.39|-243.38|0.00|0.00|276.63|0.00|0.00|0.00|0.00|0.00|0.00|0.00|0.00
FPOT|DB Avila Mango Dine In|1130|DB Avila Mango Dine In|1130|PWD|10|PWD|10|208.86|20.89|0.00|0|0.00|0|0.00|2|4|0|0|0|0.00|0.00|0.00|0|0|0|0.00|0|0.00|0|0.00|0|229.75|2|229.75|2|0.00|0|0.00|0|0.00|0.00|14|59|678.00|-469.14|0.00|0.00|-260.28|0.00|0.00|0.00|0.00|0.00|0.00|0.00|0.00
FPOT|DB Avila Mango Dine In|1130|DB Avila Mango Dine In|1130|PWD|10|PWD|10|230.86|23.09|0.00|0|0.00|0|0.00|1|2|0|0|0|0.00|0.00|0.00|0|0|0|0.00|0|0.00|0|0.00|0|253.95|1|253.95|1|0.00|0|0.00|0|0.00|0.00|14|60|339.00|-108.14|0.00|0.00|122.72|0.00|0.00|0.00|0.00|0.00|0.00|0.00|0.00
FPOT|DB Avila Mango Dine In|1130|DB Avila Mango Dine In|1130|Standard|7|Standard|7|0.00|0.00|0.00|0|0.00|0|0.00|0|0|0|0|0|0.00|0.00|0.00|0|0|0|0.00|0|0.00|0|0.00|0|0.00|0|369.25|1|0.00|0|0.00|0|0.00|0.00|11|47|0.00|0.00|0.00|0.00|0.00|0.00|0.00|0.00|0.00|0.00|0.00|0.00|0.00
FPOT|DB Avila Mango Dine In|1130|DB Avila Mango Dine In|1130|PWD|10|PWD|10|380.71|50.27|0.00|0|0.00|0|0.00|2|3|0|0|0|0.00|0.00|0.00|0|0|0|0.00|0|0.00|0|0.00|0|431.00|2|431.00|2|0.00|0|0.00|0|0.00|0.00|15|62|533.00|-152.29|0.00|0.00|228.42|0.00|0.00|0.00|0.00|0.00|0.00|0.00|0.00
FPOT|DB Avila Mango Dine In|1130|DB Avila Mango Dine In|1130|Senior Citizen|8|Senior Citizen|8|0.00|0.00|-339.00|4|0.00|0|0.00|1|2|0|0|0|0.00|0.00|0.00|0|0|0|0.00|0|0.00|0|0.00|0|0.00|2|0.00|2|0.00|0|0.00|0|0.00|-24.21|12|51|0.00|0.00|0.00|0.00|0.00|0.00|0.00|0.00|0.00|0.00|0.00|0.00|0.00
FPOT|DB Avila Mango Dine In|1130|DB Avila Mango Dine In|1130|Zero Rated|9|Zero Rated|9|665.18|36.25|0.00|0|0.00|0|0.00|2|3|0|0|0|0.00|0.00|0.00|0|0|0|0.00|0|0.00|0|0.00|0|701.45|2|701.45|2|0.00|0|0.00|0|0.00|0.00|17|72|745.00|-79.82|0.00|0.00|585.36|0.00|0.00|0.00|0.00|0.00|0.00|0.00|0.00
FPMI|DB Avila Mango Dine In|1130|DB Avila Mango Dine In|1130|CP P3.00 Charge| |108002|CP P3.00 Charge| |108002|Food|101|Food|101|Family Group 108|108|Specials|108|Zero Rated|9|Zero Rated|9|6.00|-0.64|5.36|0.00|0.00|0.00|6.00|-0.64|5.36|1|6.00|2|0|0.00|0.00|0.00|68|16
FPMI|DB Avila Mango Dine In|1130|DB Avila Mango Dine In|1130|Mooncake| |108031|Mooncake| |108031|Food|101|Food|101|Family Group 108|108|Specials|108|Standard|7|Standard|7|116.07|-23.21|92.86|0.00|0.00|0.00|116.07|-23.21|92.86|1|116.07|1|0|0.00|0.00|0.00|41|10
FPMI|DB Avila Mango Dine In|1130|DB Avila Mango Dine In|1130|CP P3.00 Charge| |108002|CP P3.00 Charge| |108002|Food|101|Food|101|Family Group 108|108|Specials|108|Senior Citizen|8|Senior Citizen|8|-3.00|0.86|-2.14|0.00|0.00|0.00|-3.00|0.86|-2.14|1|-3.00|-1|0|0.00|0.00|0.00|50|12
FPMI|DB Avila Mango Dine In|1130|DB Avila Mango Dine In|1130|Spring Roll| |101002|Spring Roll| |101002|Food|101|Food|101|FamGrp-101|101|FamGrp-101|101|PWD|10|PWD|10|78.00|-22.29|55.71|0.00|0.00|0.00|78.00|-22.29|55.71|1|78.00|1|0|0.00|0.00|0.00|60|14
FPMI|DB Avila Mango Dine In|1130|DB Avila Mango Dine In|1130|CP P3.00 Charge| |108002|CP P3.00 Charge| |108002|Food|101|Food|101|Family Group 108|108|Specials|108|Zero Rated|9|Zero Rated|9|-3.00|0.32|-2.68|0.00|0.00|0.00|-3.00|0.32|-2.68|1|-3.00|-1|0|0.00|0.00|0.00|69|17
FPMI|DB Avila Mango Dine In|1130|DB Avila Mango Dine In|1130|Spring Roll| |101002|Spring Roll| |101002|Food|101|Food|101|FamGrp-101|101|FamGrp-101|101|Standard|7|Standard|7|139.28|0.00|139.28|0.00|0.00|0.00|139.28|0.00|139.28|1|139.28|2|0|0.00|0.00|0.00|43|10
FPMI|DB Avila Mango Dine In|1130|DB Avila Mango Dine In|1130|Value Meal 2| |111003|Value Meal 2| |111003|Value Meals|103|Value Meals|103|Family Group 106|106|Value Meals|106|Senior Citizen|8|Senior Citizen|8|158.00|-45.15|112.85|0.00|0.00|0.00|158.00|-45.15|112.85|1|158.00|1|0|0.00|0.00|0.00|50|12
FPMI|DB Avila Mango Dine In|1130|DB Avila Mango Dine In|1130|Orange Juice| |107003|Orange Juice| |107003|Beverages|102|Beverages|102|Family Group 107|107|Drinks|107|PWD|10|PWD|10|100.00|-28.56|71.44|0.00|0.00|0.00|100.00|-28.56|71.44|1|100.00|1|0|0.00|0.00|0.00|61|15
FPMI|DB Avila Mango Dine In|1130|DB Avila Mango Dine In|1130|Value Meal 100| |111002|Value Meal 100| |111002|Value Meals|103|Value Meals|103|Family Group 106|106|Value Meals|106|Zero Rated|9|Zero Rated|9|100.00|-10.72|89.28|0.00|0.00|0.00|100.00|-10.72|89.28|1|100.00|1|0|0.00|0.00|0.00|68|16
FPMI|DB Avila Mango Dine In|1130|DB Avila Mango Dine In|1130|Orange Juice| |107003|Orange Juice| |107003|Beverages|102|Beverages|102|Family Group 107|107|Drinks|107|Senior Citizen|8|Senior Citizen|8|100.00|-28.56|71.44|0.00|0.00|0.00|100.00|-28.56|71.44|1|100.00|1|0|0.00|0.00|0.00|49|12
FPMI|DB Avila Mango Dine In|1130|DB Avila Mango Dine In|1130|Spring Roll| |101002|Spring Roll| |101002|Food|101|Food|101|FamGrp-101|101|FamGrp-101|101|Standard|7|Standard|7|139.28|0.00|139.28|0.00|0.00|0.00|139.28|0.00|139.28|1|139.28|2|0|0.00|0.00|0.00|42|10
FPMI|DB Avila Mango Dine In|1130|DB Avila Mango Dine In|1130|CP P3.00 Charge| |108002|CP P3.00 Charge| |108002|Food|101|Food|101|Family Group 108|108|Specials|108|Senior Citizen|8|Senior Citizen|8|-3.00|0.86|-2.14|0.00|0.00|0.00|-3.00|0.86|-2.14|1|-3.00|-1|1|0.00|0.00|0.00|52|12
FPMI|DB Avila Mango Dine In|1130|DB Avila Mango Dine In|1130|CP P3.00 Charge| |108002|CP P3.00 Charge| |108002|Food|101|Food|101|Family Group 108|108|Specials|108|PWD|10|PWD|10|3.00|-0.86|2.14|0.00|0.00|0.00|3.00|-0.86|2.14|1|3.00|1|0|0.00|0.00|0.00|63|15
FPMI|DB Avila Mango Dine In|1130|DB Avila Mango Dine In|1130|Orange Juice| |107003|Orange Juice| |107003|Beverages|102|Beverages|102|Family Group 107|107|Drinks|107|Standard|7|Standard|7|-89.29|0.00|-89.29|0.00|0.00|0.00|-89.29|0.00|-89.29|1|-89.29|-1|0|0.00|0.00|0.00|42|10
FPMI|DB Avila Mango Dine In|1130|DB Avila Mango Dine In|1130|Four Seasons| |107002|Four Seasons| |107002|Beverages|102|Beverages|102|Family Group 107|107|Drinks|107|PWD|10|PWD|10|55.00|-15.71|39.29|0.00|0.00|0.00|55.00|-15.71|39.29|1|55.00|1|0|0.00|0.00|0.00|62|15
FPMI|DB Avila Mango Dine In|1130|DB Avila Mango Dine In|1130|Value Meal 100| |111002|Value Meal 100| |111002|Value Meals|103|Value Meals|103|Family Group 106|106|Value Meals|106|Standard|7|Standard|7|89.29|-17.86|71.43|0.00|0.00|0.00|89.29|-17.86|71.43|1|89.29|1|0|0.00|0.00|0.00|41|10
FPMI|DB Avila Mango Dine In|1130|DB Avila Mango Dine In|1130|Orange Juice| |107003|Orange Juice| |107003|Beverages|102|Beverages|102|Family Group 107|107|Drinks|107|Zero Rated|9|Zero Rated|9|100.00|-73.21|26.79|0.00|0.00|0.00|100.00|-73.21|26.79|1|100.00|1|0|0.00|0.00|0.00|67|16
FPMI|DB Avila Mango Dine In|1130|DB Avila Mango Dine In|1130|Spring Roll| |101002|Spring Roll| |101002|Food|101|Food|101|FamGrp-101|101|FamGrp-101|101|Zero Rated|9|Zero Rated|9|-78.00|8.36|-69.64|0.00|0.00|0.00|-78.00|8.36|-69.64|1|-78.00|-1|0|0.00|0.00|0.00|69|17
FPMI|DB Avila Mango Dine In|1130|DB Avila Mango Dine In|1130|Orange Juice| |107003|Orange Juice| |107003|Beverages|102|Beverages|102|Family Group 107|107|Drinks|107|Zero Rated|9|Zero Rated|9|200.00|-21.42|178.58|0.00|0.00|0.00|200.00|-21.42|178.58|1|200.00|2|0|0.00|0.00|0.00|70|17
FPMI|DB Avila Mango Dine In|1130|DB Avila Mango Dine In|1130|Value Meal 2| |111003|Value Meal 2| |111003|Value Meals|103|Value Meals|103|Family Group 106|106|Value Meals|106|PWD|10|PWD|10|158.00|-90.29|67.71|0.00|0.00|0.00|158.00|-90.29|67.71|1|158.00|1|0|0.00|0.00|0.00|59|14
FPMI|DB Avila Mango Dine In|1130|DB Avila Mango Dine In|1130|CP P3.00 Charge| |108002|CP P3.00 Charge| |108002|Food|101|Food|101|Family Group 108|108|Specials|108|PWD|10|PWD|10|3.00|-1.71|1.29|0.00|0.00|0.00|3.00|-1.71|1.29|1|3.00|1|0|0.00|0.00|0.00|59|14
FPMI|DB Avila Mango Dine In|1130|DB Avila Mango Dine In|1130|CP P3.00 Charge| |108002|CP P3.00 Charge| |108002|Food|101|Food|101|Family Group 108|108|Specials|108|PWD|10|PWD|10|3.00|-0.86|2.14|0.00|0.00|0.00|3.00|-0.86|2.14|1|3.00|1|0|0.00|0.00|0.00|61|15
FPMI|DB Avila Mango Dine In|1130|DB Avila Mango Dine In|1130|Orange Juice| |107003|Orange Juice| |107003|Beverages|102|Beverages|102|Family Group 107|107|Drinks|107|PWD|10|PWD|10|-100.00|28.56|-71.44|0.00|0.00|0.00|-100.00|28.56|-71.44|1|-100.00|-1|1|0.00|0.00|0.00|63|15
FPMI|DB Avila Mango Dine In|1130|DB Avila Mango Dine In|1130|Spring Roll| |101002|Spring Roll| |101002|Food|101|Food|101|FamGrp-101|101|FamGrp-101|101|PWD|10|PWD|10|78.00|-22.29|55.71|0.00|0.00|0.00|78.00|-22.29|55.71|1|78.00|1|0|0.00|0.00|0.00|66|16
FPMI|DB Avila Mango Dine In|1130|DB Avila Mango Dine In|1130|CP P3.00 Charge| |108002|CP P3.00 Charge| |108002|Food|101|Food|101|Family Group 108|108|Specials|108|Senior Citizen|8|Senior Citizen|8|3.00|-0.86|2.14|0.00|0.00|0.00|3.00|-0.86|2.14|1|3.00|1|0|0.00|0.00|0.00|49|12
FPMI|DB Avila Mango Dine In|1130|DB Avila Mango Dine In|1130|Value Meal 2| |111003|Value Meal 2| |111003|Value Meals|103|Value Meals|103|Family Group 106|106|Value Meals|106|Senior Citizen|8|Senior Citizen|8|158.00|-45.15|112.85|0.00|0.00|0.00|158.00|-45.15|112.85|1|158.00|1|0|0.00|0.00|0.00|51|12
FPMI|DB Avila Mango Dine In|1130|DB Avila Mango Dine In|1130|Orange Juice| |107003|Orange Juice| |107003|Beverages|102|Beverages|102|Family Group 107|107|Drinks|107|Senior Citizen|8|Senior Citizen|8|100.00|-28.56|71.44|0.00|0.00|0.00|100.00|-28.56|71.44|1|100.00|1|0|0.00|0.00|0.00|52|12
FPMI|DB Avila Mango Dine In|1130|DB Avila Mango Dine In|1130|Value Meal 2| |111003|Value Meal 2| |111003|Value Meals|103|Value Meals|103|Family Group 106|106|Value Meals|106|Standard|7|Standard|7|282.14|0.00|282.14|0.00|0.00|0.00|282.14|0.00|282.14|1|282.14|2|0|0.00|0.00|0.00|42|10
FPMI|DB Avila Mango Dine In|1130|DB Avila Mango Dine In|1130|Value Meal 100| |111002|Value Meal 100| |111002|Value Meals|103|Value Meals|103|Family Group 106|106|Value Meals|106|Senior Citizen|8|Senior Citizen|8|100.00|-28.57|71.43|0.00|0.00|0.00|100.00|-28.57|71.43|1|100.00|1|0|0.00|0.00|0.00|50|12
FPMI|DB Avila Mango Dine In|1130|DB Avila Mango Dine In|1130|Value Meal 2| |111003|Value Meal 2| |111003|Value Meals|103|Value Meals|103|Family Group 106|106|Value Meals|106|Senior Citizen|8|Senior Citizen|8|-158.00|45.15|-112.85|0.00|0.00|0.00|-158.00|45.15|-112.85|1|-158.00|-1|1|0.00|0.00|0.00|52|12
FPMI|DB Avila Mango Dine In|1130|DB Avila Mango Dine In|1130|Spring Roll| |101002|Spring Roll| |101002|Food|101|Food|101|FamGrp-101|101|FamGrp-101|101|Senior Citizen|8|Senior Citizen|8|78.00|-22.29|55.71|0.00|0.00|0.00|78.00|-22.29|55.71|1|78.00|1|0|0.00|0.00|0.00|54|13
FPMI|DB Avila Mango Dine In|1130|DB Avila Mango Dine In|1130|CP P3.00 Charge| |108002|CP P3.00 Charge| |108002|Food|101|Food|101|Family Group 108|108|Specials|108|PWD|10|PWD|10|-3.00|0.86|-2.14|0.00|0.00|0.00|-3.00|0.86|-2.14|1|-3.00|-1|0|0.00|0.00|0.00|61|15
FPMI|DB Avila Mango Dine In|1130|DB Avila Mango Dine In|1130|Value Meal 2| |111003|Value Meal 2| |111003|Value Meals|103|Value Meals|103|Family Group 106|106|Value Meals|106|Zero Rated|9|Zero Rated|9|158.00|-100.15|57.85|0.00|0.00|0.00|158.00|-100.15|57.85|1|158.00|1|0|0.00|0.00|0.00|68|16
FPMI|DB Avila Mango Dine In|1130|DB Avila Mango Dine In|1130|Orange Juice| |107003|Orange Juice| |107003|Beverages|102|Beverages|102|Family Group 107|107|Drinks|107|Zero Rated|9|Zero Rated|9|100.00|-63.39|36.61|0.00|0.00|0.00|100.00|-63.39|36.61|1|100.00|1|0|0.00|0.00|0.00|68|16
FPMI|DB Avila Mango Dine In|1130|DB Avila Mango Dine In|1130|Value Meal 2| |111003|Value Meal 2| |111003|Value Meals|103|Value Meals|103|Family Group 106|106|Value Meals|106|Zero Rated|9|Zero Rated|9|158.00|-16.93|141.07|0.00|0.00|0.00|158.00|-16.93|141.07|1|158.00|1|0|0.00|0.00|0.00|71|17
FPMI|DB Avila Mango Dine In|1130|DB Avila Mango Dine In|1130|Spring Roll| |101002|Spring Roll| |101002|Food|101|Food|101|FamGrp-101|101|FamGrp-101|101|Zero Rated|9|Zero Rated|9|78.00|-8.36|69.64|0.00|0.00|0.00|78.00|-8.36|69.64|1|78.00|1|0|0.00|0.00|0.00|74|18
FPMI|DB Avila Mango Dine In|1130|DB Avila Mango Dine In|1130|Orange Juice| |107003|Orange Juice| |107003|Beverages|102|Beverages|102|Family Group 107|107|Drinks|107|Zero Rated|9|Zero Rated|9|100.00|-10.71|89.29|0.00|0.00|0.00|100.00|-10.71|89.29|1|100.00|1|0|0.00|0.00|0.00|74|18
FPMI|DB Avila Mango Dine In|1130|DB Avila Mango Dine In|1130|Orange Juice| |107003|Orange Juice| |107003|Beverages|102|Beverages|102|Family Group 107|107|Drinks|107|Standard|7|Standard|7|178.58|0.00|178.58|0.00|0.00|0.00|178.58|0.00|178.58|1|178.58|2|0|0.00|0.00|0.00|45|11
FPMI|DB Avila Mango Dine In|1130|DB Avila Mango Dine In|1130|Value Meal 2| |111003|Value Meal 2| |111003|Value Meals|103|Value Meals|103|Family Group 106|106|Value Meals|106|Zero Rated|9|Zero Rated|9|158.00|-115.68|42.32|0.00|0.00|0.00|158.00|-115.68|42.32|1|158.00|1|0|0.00|0.00|0.00|67|16
FPMI|DB Avila Mango Dine In|1130|DB Avila Mango Dine In|1130|Value Meal 2| |111003|Value Meal 2| |111003|Value Meals|103|Value Meals|103|Family Group 106|106|Value Meals|106|Zero Rated|9|Zero Rated|9|316.00|-33.86|282.14|0.00|0.00|0.00|316.00|-33.86|282.14|1|316.00|2|0|0.00|0.00|0.00|70|17
FPMI|DB Avila Mango Dine In|1130|DB Avila Mango Dine In|1130|CP P3.00 Charge| |108002|CP P3.00 Charge| |108002|Food|101|Food|101|Family Group 108|108|Specials|108|Zero Rated|9|Zero Rated|9|-3.00|0.32|-2.68|0.00|0.00|0.00|-3.00|0.32|-2.68|1|-3.00|-1|1|0.00|0.00|0.00|71|17
FPMI|DB Avila Mango Dine In|1130|DB Avila Mango Dine In|1130|CP P3.00 Charge| |108002|CP P3.00 Charge| |108002|Food|101|Food|101|Family Group 108|108|Specials|108|Standard|7|Standard|7|5.36|0.00|5.36|0.00|0.00|0.00|5.36|0.00|5.36|1|5.36|2|0|0.00|0.00|0.00|43|10
FPMI|DB Avila Mango Dine In|1130|DB Avila Mango Dine In|1130|Orange Juice| |107003|Orange Juice| |107003|Beverages|102|Beverages|102|Family Group 107|107|Drinks|107|Senior Citizen|8|Senior Citizen|8|100.00|-28.56|71.44|0.00|0.00|0.00|100.00|-28.56|71.44|1|100.00|1|0|0.00|0.00|0.00|50|12
FPMI|DB Avila Mango Dine In|1130|DB Avila Mango Dine In|1130|Orange Juice| |107003|Orange Juice| |107003|Beverages|102|Beverages|102|Family Group 107|107|Drinks|107|Senior Citizen|8|Senior Citizen|8|-100.00|28.56|-71.44|0.00|0.00|0.00|-100.00|28.56|-71.44|1|-100.00|-1|0|0.00|0.00|0.00|51|12
FPMI|DB Avila Mango Dine In|1130|DB Avila Mango Dine In|1130|Orange Juice| |107003|Orange Juice| |107003|Beverages|102|Beverages|102|Family Group 107|107|Drinks|107|Zero Rated|9|Zero Rated|9|200.00|-21.42|178.58|0.00|0.00|0.00|200.00|-21.42|178.58|1|200.00|2|0|0.00|0.00|0.00|72|17
FPMI|DB Avila Mango Dine In|1130|DB Avila Mango Dine In|1130|Buko Pandan| |105004|Buko Pandan| |105004|Food|101|Food|101|Family Group 105|105|Dessert|105|Zero Rated|9|Zero Rated|9|67.00|-7.18|59.82|0.00|0.00|0.00|67.00|-7.18|59.82|1|67.00|1|0|0.00|0.00|0.00|72|17
FPMI|DB Avila Mango Dine In|1130|DB Avila Mango Dine In|1130|Four Seasons| |107002|Four Seasons| |107002|Beverages|102|Beverages|102|Family Group 107|107|Drinks|107|Senior Citizen|8|Senior Citizen|8|55.00|-15.71|39.29|0.00|0.00|0.00|55.00|-15.71|39.29|1|55.00|1|0|0.00|0.00|0.00|54|13
FPMI|DB Avila Mango Dine In|1130|DB Avila Mango Dine In|1130|Tumbler Regular| |108035|Tumbler Regular| |108035|Food|101|Food|101|Family Group 108|108|Specials|108|Standard|7|Standard|7|223.21|-90.73|132.48|0.00|0.00|0.00|223.21|-90.73|132.48|1|223.21|1|0|0.00|0.00|0.00|41|10
FPMI|DB Avila Mango Dine In|1130|DB Avila Mango Dine In|1130|Coke Regular Can| |107018|Coke Regular Can| |107018|Beverages|102|Beverages|102|Family Group 107|107|Drinks|107|Standard|7|Standard|7|57.14|-23.23|33.91|0.00|0.00|0.00|57.14|-23.23|33.91|1|57.14|1|0|0.00|0.00|0.00|41|10
FPMI|DB Avila Mango Dine In|1130|DB Avila Mango Dine In|1130|Spring Roll| |101002|Spring Roll| |101002|Food|101|Food|101|FamGrp-101|101|FamGrp-101|101|Senior Citizen|8|Senior Citizen|8|78.00|-39.00|39.00|0.00|0.00|0.00|78.00|-39.00|39.00|1|78.00|1|0|0.00|0.00|0.00|47|11
FPMI|DB Avila Mango Dine In|1130|DB Avila Mango Dine In|1130|Value Meal 2| |111003|Value Meal 2| |111003|Value Meals|103|Value Meals|103|Family Group 106|106|Value Meals|106|Senior Citizen|8|Senior Citizen|8|158.00|-145.01|12.99|0.00|0.00|0.00|158.00|-145.01|12.99|1|158.00|1|0|0.00|0.00|0.00|48|11
FPMI|DB Avila Mango Dine In|1130|DB Avila Mango Dine In|1130|CP P3.00 Charge| |108002|CP P3.00 Charge| |108002|Food|101|Food|101|Family Group 108|108|Specials|108|Senior Citizen|8|Senior Citizen|8|3.00|-2.75|0.25|0.00|0.00|0.00|3.00|-2.75|0.25|1|3.00|1|0|0.00|0.00|0.00|48|11
FPMI|DB Avila Mango Dine In|1130|DB Avila Mango Dine In|1130|Orange Juice| |107003|Orange Juice| |107003|Beverages|102|Beverages|102|Family Group 107|107|Drinks|107|Senior Citizen|8|Senior Citizen|8|100.00|-91.79|8.21|0.00|0.00|0.00|100.00|-91.79|8.21|1|100.00|1|0|0.00|0.00|0.00|48|11
FPMI|DB Avila Mango Dine In|1130|DB Avila Mango Dine In|1130|Value Meal 2| |111003|Value Meal 2| |111003|Value Meals|103|Value Meals|103|Family Group 106|106|Value Meals|106|PWD|10|PWD|10|158.00|-128.36|29.64|0.00|0.00|0.00|158.00|-128.36|29.64|1|158.00|1|0|0.00|0.00|0.00|59|14
FPMI|DB Avila Mango Dine In|1130|DB Avila Mango Dine In|1130|CP P3.00 Charge| |108002|CP P3.00 Charge| |108002|Food|101|Food|101|Family Group 108|108|Specials|108|PWD|10|PWD|10|3.00|-2.43|0.57|0.00|0.00|0.00|3.00|-2.43|0.57|1|3.00|1|0|0.00|0.00|0.00|59|14
FPMI|DB Avila Mango Dine In|1130|DB Avila Mango Dine In|1130|Spring Roll| |101002|Spring Roll| |101002|Food|101|Food|101|FamGrp-101|101|FamGrp-101|101|PWD|10|PWD|10|-78.00|22.29|-55.71|0.00|0.00|0.00|-78.00|22.29|-55.71|1|-78.00|-1|0|0.00|0.00|0.00|61|15
FPMI|DB Avila Mango Dine In|1130|DB Avila Mango Dine In|1130|Value Meal 2| |111003|Value Meal 2| |111003|Value Meals|103|Value Meals|103|Family Group 106|106|Value Meals|106|PWD|10|PWD|10|-158.00|45.15|-112.85|0.00|0.00|0.00|-158.00|45.15|-112.85|1|-158.00|-1|0|0.00|0.00|0.00|61|15
FPMI|DB Avila Mango Dine In|1130|DB Avila Mango Dine In|1130|Orange Juice| |107003|Orange Juice| |107003|Beverages|102|Beverages|102|Family Group 107|107|Drinks|107|Zero Rated|9|Zero Rated|9|100.00|-10.71|89.29|0.00|0.00|0.00|100.00|-10.71|89.29|1|100.00|1|0|0.00|0.00|0.00|71|17
FPMI|DB Avila Mango Dine In|1130|DB Avila Mango Dine In|1130|Value Meal 2| |111003|Value Meal 2| |111003|Value Meals|103|Value Meals|103|Family Group 106|106|Value Meals|106|PWD|10|PWD|10|158.00|-56.42|101.58|0.00|0.00|0.00|158.00|-56.42|101.58|1|158.00|1|0|0.00|0.00|0.00|60|14
FPMI|DB Avila Mango Dine In|1130|DB Avila Mango Dine In|1130|Value Meal 2| |111003|Value Meal 2| |111003|Value Meals|103|Value Meals|103|Family Group 106|106|Value Meals|106|Zero Rated|9|Zero Rated|9|-158.00|16.93|-141.07|0.00|0.00|0.00|-158.00|16.93|-141.07|1|-158.00|-1|1|0.00|0.00|0.00|71|17
FPMI|DB Avila Mango Dine In|1130|DB Avila Mango Dine In|1130|Spring Roll| |101002|Spring Roll| |101002|Food|101|Food|101|FamGrp-101|101|FamGrp-101|101|Senior Citizen|8|Senior Citizen|8|156.00|-44.58|111.42|0.00|0.00|0.00|156.00|-44.58|111.42|1|156.00|2|0|0.00|0.00|0.00|50|12
FPMI|DB Avila Mango Dine In|1130|DB Avila Mango Dine In|1130|CP P3.00 Charge| |108002|CP P3.00 Charge| |108002|Food|101|Food|101|Family Group 108|108|Specials|108|Senior Citizen|8|Senior Citizen|8|6.00|-1.72|4.28|0.00|0.00|0.00|6.00|-1.72|4.28|1|6.00|2|0|0.00|0.00|0.00|50|12
FPMI|DB Avila Mango Dine In|1130|DB Avila Mango Dine In|1130|Orange Juice| |107003|Orange Juice| |107003|Beverages|102|Beverages|102|Family Group 107|107|Drinks|107|PWD|10|PWD|10|100.00|-57.14|42.86|0.00|0.00|0.00|100.00|-57.14|42.86|1|100.00|1|0|0.00|0.00|0.00|59|14
FPMI|DB Avila Mango Dine In|1130|DB Avila Mango Dine In|1130|Spring Roll| |101002|Spring Roll| |101002|Food|101|Food|101|FamGrp-101|101|FamGrp-101|101|PWD|10|PWD|10|156.00|-44.58|111.42|0.00|0.00|0.00|156.00|-44.58|111.42|1|156.00|2|0|0.00|0.00|0.00|62|15
FPMI|DB Avila Mango Dine In|1130|DB Avila Mango Dine In|1130|CP P3.00 Charge| |108002|CP P3.00 Charge| |108002|Food|101|Food|101|Family Group 108|108|Specials|108|PWD|10|PWD|10|6.00|-1.72|4.28|0.00|0.00|0.00|6.00|-1.72|4.28|1|6.00|2|0|0.00|0.00|0.00|62|15
FPMI|DB Avila Mango Dine In|1130|DB Avila Mango Dine In|1130|Value Meal 2| |111003|Value Meal 2| |111003|Value Meals|103|Value Meals|103|Family Group 106|106|Value Meals|106|Zero Rated|9|Zero Rated|9|316.00|-33.86|282.14|0.00|0.00|0.00|316.00|-33.86|282.14|1|316.00|2|0|0.00|0.00|0.00|72|17
FPMI|DB Avila Mango Dine In|1130|DB Avila Mango Dine In|1130|Orange Juice| |107003|Orange Juice| |107003|Beverages|102|Beverages|102|Family Group 107|107|Drinks|107|Standard|7|Standard|7|89.29|-8.93|80.36|0.00|0.00|0.00|89.29|-8.93|80.36|1|89.29|1|0|0.00|0.00|0.00|42|10
FPMI|DB Avila Mango Dine In|1130|DB Avila Mango Dine In|1130|Spring Roll| |101002|Spring Roll| |101002|Food|101|Food|101|FamGrp-101|101|FamGrp-101|101|Standard|7|Standard|7|69.64|0.00|69.64|0.00|0.00|0.00|69.64|0.00|69.64|1|69.64|1|0|0.00|0.00|0.00|44|10
FPMI|DB Avila Mango Dine In|1130|DB Avila Mango Dine In|1130|Value Meal 2| |111003|Value Meal 2| |111003|Value Meals|103|Value Meals|103|Family Group 106|106|Value Meals|106|Standard|7|Standard|7|141.07|0.00|141.07|0.00|0.00|0.00|141.07|0.00|141.07|1|141.07|1|0|0.00|0.00|0.00|44|10
FPMI|DB Avila Mango Dine In|1130|DB Avila Mango Dine In|1130|Value Meal 100| |111002|Value Meal 100| |111002|Value Meals|103|Value Meals|103|Family Group 106|106|Value Meals|106|Standard|7|Standard|7|89.29|-36.29|53.00|0.00|0.00|0.00|89.29|-36.29|53.00|1|89.29|1|0|0.00|0.00|0.00|41|10
FPMI|DB Avila Mango Dine In|1130|DB Avila Mango Dine In|1130|CP P3.00 Charge| |108002|CP P3.00 Charge| |108002|Food|101|Food|101|Family Group 108|108|Specials|108|Senior Citizen|8|Senior Citizen|8|3.00|-1.50|1.50|0.00|0.00|0.00|3.00|-1.50|1.50|1|3.00|1|0|0.00|0.00|0.00|47|11
FPMI|DB Avila Mango Dine In|1130|DB Avila Mango Dine In|1130|Orange Juice| |107003|Orange Juice| |107003|Beverages|102|Beverages|102|Family Group 107|107|Drinks|107|Senior Citizen|8|Senior Citizen|8|100.00|-35.71|64.29|0.00|0.00|0.00|100.00|-35.71|64.29|1|100.00|1|0|0.00|0.00|0.00|48|11
FPMI|DB Avila Mango Dine In|1130|DB Avila Mango Dine In|1130|Spring Roll| |101002|Spring Roll| |101002|Food|101|Food|101|FamGrp-101|101|FamGrp-101|101|Standard|7|Standard|7|139.28|0.00|139.28|0.00|0.00|0.00|139.28|0.00|139.28|1|139.28|2|0|0.00|0.00|0.00|45|11
FPMI|DB Avila Mango Dine In|1130|DB Avila Mango Dine In|1130|Value Meal 2| |111003|Value Meal 2| |111003|Value Meals|103|Value Meals|103|Family Group 106|106|Value Meals|106|Standard|7|Standard|7|282.14|0.00|282.14|0.00|0.00|0.00|282.14|0.00|282.14|1|282.14|2|0|0.00|0.00|0.00|45|11
FPMI|DB Avila Mango Dine In|1130|DB Avila Mango Dine In|1130|CP P3.00 Charge| |108002|CP P3.00 Charge| |108002|Food|101|Food|101|Family Group 108|108|Specials|108|Standard|7|Standard|7|-2.68|0.00|-2.68|0.00|0.00|0.00|-2.68|0.00|-2.68|1|-2.68|-1|1|0.00|0.00|0.00|44|10
FPMI|DB Avila Mango Dine In|1130|DB Avila Mango Dine In|1130|CP P3.00 Charge| |108002|CP P3.00 Charge| |108002|Food|101|Food|101|Family Group 108|108|Specials|108|Zero Rated|9|Zero Rated|9|3.00|-2.20|0.80|0.00|0.00|0.00|3.00|-2.20|0.80|1|3.00|1|0|0.00|0.00|0.00|67|16
FPMI|DB Avila Mango Dine In|1130|DB Avila Mango Dine In|1130|Orange Juice| |107003|Orange Juice| |107003|Beverages|102|Beverages|102|Family Group 107|107|Drinks|107|Zero Rated|9|Zero Rated|9|-100.00|10.71|-89.29|0.00|0.00|0.00|-100.00|10.71|-89.29|1|-100.00|-1|0|0.00|0.00|0.00|69|17
FPMI|DB Avila Mango Dine In|1130|DB Avila Mango Dine In|1130|Spring Roll| |101002|Spring Roll| |101002|Food|101|Food|101|FamGrp-101|101|FamGrp-101|101|Zero Rated|9|Zero Rated|9|156.00|-16.72|139.28|0.00|0.00|0.00|156.00|-16.72|139.28|1|156.00|2|0|0.00|0.00|0.00|70|17
FPMI|DB Avila Mango Dine In|1130|DB Avila Mango Dine In|1130|CP P3.00 Charge| |108002|CP P3.00 Charge| |108002|Food|101|Food|101|Family Group 108|108|Specials|108|Zero Rated|9|Zero Rated|9|6.00|-0.64|5.36|0.00|0.00|0.00|6.00|-0.64|5.36|1|6.00|2|0|0.00|0.00|0.00|70|17
FPMI|DB Avila Mango Dine In|1130|DB Avila Mango Dine In|1130|Spring Roll| |101002|Spring Roll| |101002|Food|101|Food|101|FamGrp-101|101|FamGrp-101|101|Senior Citizen|8|Senior Citizen|8|-78.00|22.29|-55.71|0.00|0.00|0.00|-78.00|22.29|-55.71|1|-78.00|-1|0|0.00|0.00|0.00|51|12
FPMI|DB Avila Mango Dine In|1130|DB Avila Mango Dine In|1130|Spring Roll| |101002|Spring Roll| |101002|Food|101|Food|101|FamGrp-101|101|FamGrp-101|101|PWD|10|PWD|10|78.00|-22.29|55.71|0.00|0.00|0.00|78.00|-22.29|55.71|1|78.00|1|0|0.00|0.00|0.00|65|16
FPMI|DB Avila Mango Dine In|1130|DB Avila Mango Dine In|1130|CP P3.00 Charge| |108002|CP P3.00 Charge| |108002|Food|101|Food|101|Family Group 108|108|Specials|108|Senior Citizen|8|Senior Citizen|8|3.00|-0.86|2.14|0.00|0.00|0.00|3.00|-0.86|2.14|1|3.00|1|0|0.00|0.00|0.00|51|12
FPMI|DB Avila Mango Dine In|1130|DB Avila Mango Dine In|1130|CP P3.00 Charge| |108002|CP P3.00 Charge| |108002|Food|101|Food|101|Family Group 108|108|Specials|108|Standard|7|Standard|7|2.68|0.00|2.68|0.00|0.00|0.00|2.68|0.00|2.68|1|2.68|1|0|0.00|0.00|0.00|44|10
FPMI|DB Avila Mango Dine In|1130|DB Avila Mango Dine In|1130|Orange Juice| |107003|Orange Juice| |107003|Beverages|102|Beverages|102|Family Group 107|107|Drinks|107|Senior Citizen|8|Senior Citizen|8|-100.00|28.56|-71.44|0.00|0.00|0.00|-100.00|28.56|-71.44|1|-100.00|-1|1|0.00|0.00|0.00|52|12
FPMI|DB Avila Mango Dine In|1130|DB Avila Mango Dine In|1130|CP P3.00 Charge| |108002|CP P3.00 Charge| |108002|Food|101|Food|101|Family Group 108|108|Specials|108|Senior Citizen|8|Senior Citizen|8|3.00|-0.86|2.14|0.00|0.00|0.00|3.00|-0.86|2.14|1|3.00|1|0|0.00|0.00|0.00|54|13
FPMI|DB Avila Mango Dine In|1130|DB Avila Mango Dine In|1130|Spring Roll| |101002|Spring Roll| |101002|Food|101|Food|101|FamGrp-101|101|FamGrp-101|101|Standard|7|Standard|7|69.64|-28.31|41.33|0.00|0.00|0.00|69.64|-28.31|41.33|1|69.64|1|0|0.00|0.00|0.00|41|10
FPMI|DB Avila Mango Dine In|1130|DB Avila Mango Dine In|1130|Value Meal 2| |111003|Value Meal 2| |111003|Value Meals|103|Value Meals|103|Family Group 106|106|Value Meals|106|Standard|7|Standard|7|-141.07|0.00|-141.07|0.00|0.00|0.00|-141.07|0.00|-141.07|1|-141.07|-1|0|0.00|0.00|0.00|42|10
FPMI|DB Avila Mango Dine In|1130|DB Avila Mango Dine In|1130|Value Meal 2| |111003|Value Meal 2| |111003|Value Meals|103|Value Meals|103|Family Group 106|106|Value Meals|106|Senior Citizen|8|Senior Citizen|8|158.00|-79.00|79.00|0.00|0.00|0.00|158.00|-79.00|79.00|1|158.00|1|0|0.00|0.00|0.00|47|11
FPMI|DB Avila Mango Dine In|1130|DB Avila Mango Dine In|1130|Orange Juice| |107003|Orange Juice| |107003|Beverages|102|Beverages|102|Family Group 107|107|Drinks|107|Senior Citizen|8|Senior Citizen|8|100.00|-50.00|50.00|0.00|0.00|0.00|100.00|-50.00|50.00|1|100.00|1|0|0.00|0.00|0.00|47|11
FPMI|DB Avila Mango Dine In|1130|DB Avila Mango Dine In|1130|Value Meal 2| |111003|Value Meal 2| |111003|Value Meals|103|Value Meals|103|Family Group 106|106|Value Meals|106|Senior Citizen|8|Senior Citizen|8|158.00|-45.14|112.86|0.00|0.00|0.00|158.00|-45.14|112.86|1|158.00|1|0|0.00|0.00|0.00|48|11
FPMI|DB Avila Mango Dine In|1130|DB Avila Mango Dine In|1130|Value Meal 2| |111003|Value Meal 2| |111003|Value Meals|103|Value Meals|103|Family Group 106|106|Value Meals|106|Senior Citizen|8|Senior Citizen|8|158.00|-45.15|112.85|0.00|0.00|0.00|158.00|-45.15|112.85|1|158.00|1|0|0.00|0.00|0.00|53|13
FPMI|DB Avila Mango Dine In|1130|DB Avila Mango Dine In|1130|Orange Juice| |107003|Orange Juice| |107003|Beverages|102|Beverages|102|Family Group 107|107|Drinks|107|PWD|10|PWD|10|-100.00|28.56|-71.44|0.00|0.00|0.00|-100.00|28.56|-71.44|1|-100.00|-1|0|0.00|0.00|0.00|61|15
FPMI|DB Avila Mango Dine In|1130|DB Avila Mango Dine In|1130|Spring Roll| |101002|Spring Roll| |101002|Food|101|Food|101|FamGrp-101|101|FamGrp-101|101|Zero Rated|9|Zero Rated|9|156.00|-16.72|139.28|0.00|0.00|0.00|156.00|-16.72|139.28|1|156.00|2|0|0.00|0.00|0.00|68|16
FPMI|DB Avila Mango Dine In|1130|DB Avila Mango Dine In|1130|Value Meal 2| |111003|Value Meal 2| |111003|Value Meals|103|Value Meals|103|Family Group 106|106|Value Meals|106|Senior Citizen|8|Senior Citizen|8|-158.00|45.15|-112.85|0.00|0.00|0.00|-158.00|45.15|-112.85|1|-158.00|-1|0|0.00|0.00|0.00|50|12
FPMI|DB Avila Mango Dine In|1130|DB Avila Mango Dine In|1130|Orange Juice| |107003|Orange Juice| |107003|Beverages|102|Beverages|102|Family Group 107|107|Drinks|107|PWD|10|PWD|10|100.00|-28.57|71.43|0.00|0.00|0.00|100.00|-28.57|71.43|1|100.00|1|0|0.00|0.00|0.00|60|14
FPMI|DB Avila Mango Dine In|1130|DB Avila Mango Dine In|1130|Value Meal 2| |111003|Value Meal 2| |111003|Value Meals|103|Value Meals|103|Family Group 106|106|Value Meals|106|Zero Rated|9|Zero Rated|9|-158.00|16.93|-141.07|0.00|0.00|0.00|-158.00|16.93|-141.07|1|-158.00|-1|0|0.00|0.00|0.00|69|17
FPMI|DB Avila Mango Dine In|1130|DB Avila Mango Dine In|1130|Orange Juice| |107003|Orange Juice| |107003|Beverages|102|Beverages|102|Family Group 107|107|Drinks|107|Standard|7|Standard|7|89.29|0.00|89.29|0.00|0.00|0.00|89.29|0.00|89.29|1|89.29|1|0|0.00|0.00|0.00|43|10
FPMI|DB Avila Mango Dine In|1130|DB Avila Mango Dine In|1130|CP P3.00 Charge| |108002|CP P3.00 Charge| |108002|Food|101|Food|101|Family Group 108|108|Specials|108|Senior Citizen|8|Senior Citizen|8|-3.00|0.86|-2.14|0.00|0.00|0.00|-3.00|0.86|-2.14|1|-3.00|-1|0|0.00|0.00|0.00|51|12
FPMI|DB Avila Mango Dine In|1130|DB Avila Mango Dine In|1130|Value Meal 2| |111003|Value Meal 2| |111003|Value Meals|103|Value Meals|103|Family Group 106|106|Value Meals|106|PWD|10|PWD|10|-158.00|45.15|-112.85|0.00|0.00|0.00|-158.00|45.15|-112.85|1|-158.00|-1|1|0.00|0.00|0.00|63|15
FPMI|DB Avila Mango Dine In|1130|DB Avila Mango Dine In|1130|Orange Juice| |107003|Orange Juice| |107003|Beverages|102|Beverages|102|Family Group 107|107|Drinks|107|PWD|10|PWD|10|100.00|-28.56|71.44|0.00|0.00|0.00|100.00|-28.56|71.44|1|100.00|1|0|0.00|0.00|0.00|65|16
FPMI|DB Avila Mango Dine In|1130|DB Avila Mango Dine In|1130|Orange Juice| |107003|Orange Juice| |107003|Beverages|102|Beverages|102|Family Group 107|107|Drinks|107|PWD|10|PWD|10|100.00|-28.56|71.44|0.00|0.00|0.00|100.00|-28.56|71.44|1|100.00|1|0|0.00|0.00|0.00|66|16
FPMI|DB Avila Mango Dine In|1130|DB Avila Mango Dine In|1130|Spring Roll| |101002|Spring Roll| |101002|Food|101|Food|101|FamGrp-101|101|FamGrp-101|101|Zero Rated|9|Zero Rated|9|156.00|-16.72|139.28|0.00|0.00|0.00|156.00|-16.72|139.28|1|156.00|2|0|0.00|0.00|0.00|72|17
FPMI|DB Avila Mango Dine In|1130|DB Avila Mango Dine In|1130|CP P3.00 Charge| |108002|CP P3.00 Charge| |108002|Food|101|Food|101|Family Group 108|108|Specials|108|Zero Rated|9|Zero Rated|9|6.00|-0.64|5.36|0.00|0.00|0.00|6.00|-0.64|5.36|1|6.00|2|0|0.00|0.00|0.00|72|17
FPMI|DB Avila Mango Dine In|1130|DB Avila Mango Dine In|1130|Spring Roll| |101002|Spring Roll| |101002|Food|101|Food|101|FamGrp-101|101|FamGrp-101|101|Senior Citizen|8|Senior Citizen|8|78.00|-22.29|55.71|0.00|0.00|0.00|78.00|-22.29|55.71|1|78.00|1|0|0.00|0.00|0.00|52|12
FPMI|DB Avila Mango Dine In|1130|DB Avila Mango Dine In|1130|Orange Juice| |107003|Orange Juice| |107003|Beverages|102|Beverages|102|Family Group 107|107|Drinks|107|Standard|7|Standard|7|89.29|0.00|89.29|0.00|0.00|0.00|89.29|0.00|89.29|1|89.29|1|0|0.00|0.00|0.00|44|10
FPMI|DB Avila Mango Dine In|1130|DB Avila Mango Dine In|1130|Value Meal 2| |111003|Value Meal 2| |111003|Value Meals|103|Value Meals|103|Family Group 106|106|Value Meals|106|PWD|10|PWD|10|158.00|-45.15|112.85|0.00|0.00|0.00|158.00|-45.15|112.85|1|158.00|1|0|0.00|0.00|0.00|63|15
FPMI|DB Avila Mango Dine In|1130|DB Avila Mango Dine In|1130|Orange Juice| |107003|Orange Juice| |107003|Beverages|102|Beverages|102|Family Group 107|107|Drinks|107|PWD|10|PWD|10|100.00|-28.56|71.44|0.00|0.00|0.00|100.00|-28.56|71.44|1|100.00|1|0|0.00|0.00|0.00|63|15
FPMI|DB Avila Mango Dine In|1130|DB Avila Mango Dine In|1130|Spring Roll| |101002|Spring Roll| |101002|Food|101|Food|101|FamGrp-101|101|FamGrp-101|101|Senior Citizen|8|Senior Citizen|8|78.00|-71.59|6.41|0.00|0.00|0.00|78.00|-71.59|6.41|1|78.00|1|0|0.00|0.00|0.00|48|11
FPMI|DB Avila Mango Dine In|1130|DB Avila Mango Dine In|1130|Spring Roll| |101002|Spring Roll| |101002|Food|101|Food|101|FamGrp-101|101|FamGrp-101|101|Senior Citizen|8|Senior Citizen|8|78.00|-22.29|55.71|0.00|0.00|0.00|78.00|-22.29|55.71|1|78.00|1|0|0.00|0.00|0.00|48|11
FPMI|DB Avila Mango Dine In|1130|DB Avila Mango Dine In|1130|Spring Roll| |101002|Spring Roll| |101002|Food|101|Food|101|FamGrp-101|101|FamGrp-101|101|Senior Citizen|8|Senior Citizen|8|78.00|-22.29|55.71|0.00|0.00|0.00|78.00|-22.29|55.71|1|78.00|1|0|0.00|0.00|0.00|53|13
FPMI|DB Avila Mango Dine In|1130|DB Avila Mango Dine In|1130|CP P3.00 Charge| |108002|CP P3.00 Charge| |108002|Food|101|Food|101|Family Group 108|108|Specials|108|Senior Citizen|8|Senior Citizen|8|3.00|-0.86|2.14|0.00|0.00|0.00|3.00|-0.86|2.14|1|3.00|1|0|0.00|0.00|0.00|53|13
FPMI|DB Avila Mango Dine In|1130|DB Avila Mango Dine In|1130|Orange Juice| |107003|Orange Juice| |107003|Beverages|102|Beverages|102|Family Group 107|107|Drinks|107|Senior Citizen|8|Senior Citizen|8|100.00|-28.56|71.44|0.00|0.00|0.00|100.00|-28.56|71.44|1|100.00|1|0|0.00|0.00|0.00|53|13
FPMI|DB Avila Mango Dine In|1130|DB Avila Mango Dine In|1130|Spring Roll| |101002|Spring Roll| |101002|Food|101|Food|101|FamGrp-101|101|FamGrp-101|101|PWD|10|PWD|10|78.00|-63.38|14.62|0.00|0.00|0.00|78.00|-63.38|14.62|1|78.00|1|0|0.00|0.00|0.00|59|14
FPMI|DB Avila Mango Dine In|1130|DB Avila Mango Dine In|1130|CP P3.00 Charge| |108002|CP P3.00 Charge| |108002|Food|101|Food|101|Family Group 108|108|Specials|108|Zero Rated|9|Zero Rated|9|3.00|-1.90|1.10|0.00|0.00|0.00|3.00|-1.90|1.10|1|3.00|1|0|0.00|0.00|0.00|68|16
FPMI|DB Avila Mango Dine In|1130|DB Avila Mango Dine In|1130|CP P3.00 Charge| |108002|CP P3.00 Charge| |108002|Food|101|Food|101|Family Group 108|108|Specials|108|Standard|7|Standard|7|5.36|0.00|5.36|0.00|0.00|0.00|5.36|0.00|5.36|1|5.36|2|0|0.00|0.00|0.00|45|11
FPMI|DB Avila Mango Dine In|1130|DB Avila Mango Dine In|1130|Value Meal 2| |111003|Value Meal 2| |111003|Value Meals|103|Value Meals|103|Family Group 106|106|Value Meals|106|Zero Rated|9|Zero Rated|9|158.00|-16.93|141.07|0.00|0.00|0.00|158.00|-16.93|141.07|1|158.00|1|0|0.00|0.00|0.00|68|16
FPMI|DB Avila Mango Dine In|1130|DB Avila Mango Dine In|1130|Spring Roll| |101002|Spring Roll| |101002|Food|101|Food|101|FamGrp-101|101|FamGrp-101|101|Standard|7|Standard|7|-69.64|0.00|-69.64|0.00|0.00|0.00|-69.64|0.00|-69.64|1|-69.64|-1|1|0.00|0.00|0.00|44|10
FPMI|DB Avila Mango Dine In|1130|DB Avila Mango Dine In|1130|Spring Roll| |101002|Spring Roll| |101002|Food|101|Food|101|FamGrp-101|101|FamGrp-101|101|Standard|7|Standard|7|69.64|-13.93|55.71|0.00|0.00|0.00|69.64|-13.93|55.71|1|69.64|1|0|0.00|0.00|0.00|41|10
FPMI|DB Avila Mango Dine In|1130|DB Avila Mango Dine In|1130|Orange Juice| |107003|Orange Juice| |107003|Beverages|102|Beverages|102|Family Group 107|107|Drinks|107|Senior Citizen|8|Senior Citizen|8|-100.00|28.56|-71.44|0.00|0.00|0.00|-100.00|28.56|-71.44|1|-100.00|-1|0|0.00|0.00|0.00|50|12
FPMI|DB Avila Mango Dine In|1130|DB Avila Mango Dine In|1130|Orange Juice| |107003|Orange Juice| |107003|Beverages|102|Beverages|102|Family Group 107|107|Drinks|107|Zero Rated|9|Zero Rated|9|-100.00|10.71|-89.29|0.00|0.00|0.00|-100.00|10.71|-89.29|1|-100.00|-1|1|0.00|0.00|0.00|71|17
FPMI|DB Avila Mango Dine In|1130|DB Avila Mango Dine In|1130|Four Seasons| |107002|Four Seasons| |107002|Beverages|102|Beverages|102|Family Group 107|107|Drinks|107|Standard|7|Standard|7|49.11|0.00|49.11|0.00|0.00|0.00|49.11|0.00|49.11|1|49.11|1|0|0.00|0.00|0.00|43|10
FPMI|DB Avila Mango Dine In|1130|DB Avila Mango Dine In|1130|Value Meal 2| |111003|Value Meal 2| |111003|Value Meals|103|Value Meals|103|Family Group 106|106|Value Meals|106|Senior Citizen|8|Senior Citizen|8|-158.00|45.15|-112.85|0.00|0.00|0.00|-158.00|45.15|-112.85|1|-158.00|-1|0|0.00|0.00|0.00|51|12
FPMI|DB Avila Mango Dine In|1130|DB Avila Mango Dine In|1130|Spring Roll| |101002|Spring Roll| |101002|Food|101|Food|101|FamGrp-101|101|FamGrp-101|101|PWD|10|PWD|10|78.00|-22.29|55.71|0.00|0.00|0.00|78.00|-22.29|55.71|1|78.00|1|0|0.00|0.00|0.00|61|15
FPMI|DB Avila Mango Dine In|1130|DB Avila Mango Dine In|1130|Value Meal 2| |111003|Value Meal 2| |111003|Value Meals|103|Value Meals|103|Family Group 106|106|Value Meals|106|PWD|10|PWD|10|316.00|-90.28|225.72|0.00|0.00|0.00|316.00|-90.28|225.72|1|316.00|2|0|0.00|0.00|0.00|62|15
FPMI|DB Avila Mango Dine In|1130|DB Avila Mango Dine In|1130|CP P3.00 Charge| |108002|CP P3.00 Charge| |108002|Food|101|Food|101|Family Group 108|108|Specials|108|PWD|10|PWD|10|-3.00|0.86|-2.14|0.00|0.00|0.00|-3.00|0.86|-2.14|1|-3.00|-1|1|0.00|0.00|0.00|63|15
FPMI|DB Avila Mango Dine In|1130|DB Avila Mango Dine In|1130|CP P3.00 Charge| |108002|CP P3.00 Charge| |108002|Food|101|Food|101|Family Group 108|108|Specials|108|PWD|10|PWD|10|3.00|-0.86|2.14|0.00|0.00|0.00|3.00|-0.86|2.14|1|3.00|1|0|0.00|0.00|0.00|65|16
FPMI|DB Avila Mango Dine In|1130|DB Avila Mango Dine In|1130|Value Meal 2| |111003|Value Meal 2| |111003|Value Meals|103|Value Meals|103|Family Group 106|106|Value Meals|106|PWD|10|PWD|10|158.00|-45.15|112.85|0.00|0.00|0.00|158.00|-45.15|112.85|1|158.00|1|0|0.00|0.00|0.00|66|16
FPMI|DB Avila Mango Dine In|1130|DB Avila Mango Dine In|1130|CP P3.00 Charge| |108002|CP P3.00 Charge| |108002|Food|101|Food|101|Family Group 108|108|Specials|108|PWD|10|PWD|10|3.00|-0.86|2.14|0.00|0.00|0.00|3.00|-0.86|2.14|1|3.00|1|0|0.00|0.00|0.00|66|16
FPMI|DB Avila Mango Dine In|1130|DB Avila Mango Dine In|1130|Orange Juice| |107003|Orange Juice| |107003|Beverages|102|Beverages|102|Family Group 107|107|Drinks|107|Zero Rated|9|Zero Rated|9|100.00|-19.64|80.36|0.00|0.00|0.00|100.00|-19.64|80.36|1|100.00|1|0|0.00|0.00|0.00|68|16
FPMI|DB Avila Mango Dine In|1130|DB Avila Mango Dine In|1130|Value Meal 2| |111003|Value Meal 2| |111003|Value Meals|103|Value Meals|103|Family Group 106|106|Value Meals|106|Senior Citizen|8|Senior Citizen|8|158.00|-45.15|112.85|0.00|0.00|0.00|158.00|-45.15|112.85|1|158.00|1|0|0.00|0.00|0.00|49|12
FPMI|DB Avila Mango Dine In|1130|DB Avila Mango Dine In|1130|Value Meal 2| |111003|Value Meal 2| |111003|Value Meals|103|Value Meals|103|Family Group 106|106|Value Meals|106|Senior Citizen|8|Senior Citizen|8|158.00|-45.15|112.85|0.00|0.00|0.00|158.00|-45.15|112.85|1|158.00|1|0|0.00|0.00|0.00|52|12
FPMI|DB Avila Mango Dine In|1130|DB Avila Mango Dine In|1130|CP P3.00 Charge| |108002|CP P3.00 Charge| |108002|Food|101|Food|101|Family Group 108|108|Specials|108|Senior Citizen|8|Senior Citizen|8|3.00|-0.86|2.14|0.00|0.00|0.00|3.00|-0.86|2.14|1|3.00|1|0|0.00|0.00|0.00|52|12
FPMI|DB Avila Mango Dine In|1130|DB Avila Mango Dine In|1130|CP P3.00 Charge| |108002|CP P3.00 Charge| |108002|Food|101|Food|101|Family Group 108|108|Specials|108|Standard|7|Standard|7|5.36|0.00|5.36|0.00|0.00|0.00|5.36|0.00|5.36|1|5.36|2|0|0.00|0.00|0.00|42|10
FPMI|DB Avila Mango Dine In|1130|DB Avila Mango Dine In|1130|Orange Juice| |107003|Orange Juice| |107003|Beverages|102|Beverages|102|Family Group 107|107|Drinks|107|Senior Citizen|8|Senior Citizen|8|100.00|-28.57|71.43|0.00|0.00|0.00|100.00|-28.57|71.43|1|100.00|1|0|0.00|0.00|0.00|50|12
FPMI|DB Avila Mango Dine In|1130|DB Avila Mango Dine In|1130|Spring Roll| |101002|Spring Roll| |101002|Food|101|Food|101|FamGrp-101|101|FamGrp-101|101|Standard|7|Standard|7|-69.64|0.00|-69.64|0.00|0.00|0.00|-69.64|0.00|-69.64|1|-69.64|-1|0|0.00|0.00|0.00|42|10
FPMI|DB Avila Mango Dine In|1130|DB Avila Mango Dine In|1130|CP P3.00 Charge| |108002|CP P3.00 Charge| |108002|Food|101|Food|101|Family Group 108|108|Specials|108|Senior Citizen|8|Senior Citizen|8|3.00|-0.86|2.14|0.00|0.00|0.00|3.00|-0.86|2.14|1|3.00|1|0|0.00|0.00|0.00|48|11
FPMI|DB Avila Mango Dine In|1130|DB Avila Mango Dine In|1130|Orange Juice| |107003|Orange Juice| |107003|Beverages|102|Beverages|102|Family Group 107|107|Drinks|107|PWD|10|PWD|10|100.00|-81.26|18.74|0.00|0.00|0.00|100.00|-81.26|18.74|1|100.00|1|0|0.00|0.00|0.00|59|14
FPMI|DB Avila Mango Dine In|1130|DB Avila Mango Dine In|1130|CP P3.00 Charge| |108002|CP P3.00 Charge| |108002|Food|101|Food|101|Family Group 108|108|Specials|108|Zero Rated|9|Zero Rated|9|3.00|-0.32|2.68|0.00|0.00|0.00|3.00|-0.32|2.68|1|3.00|1|0|0.00|0.00|0.00|71|17
FPMI|DB Avila Mango Dine In|1130|DB Avila Mango Dine In|1130|Value Meal 2| |111003|Value Meal 2| |111003|Value Meals|103|Value Meals|103|Family Group 106|106|Value Meals|106|Zero Rated|9|Zero Rated|9|158.00|-16.93|141.07|0.00|0.00|0.00|158.00|-16.93|141.07|1|158.00|1|0|0.00|0.00|0.00|74|18
FPMI|DB Avila Mango Dine In|1130|DB Avila Mango Dine In|1130|CP P3.00 Charge| |108002|CP P3.00 Charge| |108002|Food|101|Food|101|Family Group 108|108|Specials|108|Zero Rated|9|Zero Rated|9|3.00|-0.32|2.68|0.00|0.00|0.00|3.00|-0.32|2.68|1|3.00|1|0|0.00|0.00|0.00|74|18
FPMI|DB Avila Mango Dine In|1130|DB Avila Mango Dine In|1130|Orange Juice| |107003|Orange Juice| |107003|Beverages|102|Beverages|102|Family Group 107|107|Drinks|107|Zero Rated|9|Zero Rated|9|100.00|-10.71|89.29|0.00|0.00|0.00|100.00|-10.71|89.29|1|100.00|1|0|0.00|0.00|0.00|68|16
FPMI|DB Avila Mango Dine In|1130|DB Avila Mango Dine In|1130|Value Meal 2| |111003|Value Meal 2| |111003|Value Meals|103|Value Meals|103|Family Group 106|106|Value Meals|106|Standard|7|Standard|7|-141.07|0.00|-141.07|0.00|0.00|0.00|-141.07|0.00|-141.07|1|-141.07|-1|1|0.00|0.00|0.00|44|10
FPMI|DB Avila Mango Dine In|1130|DB Avila Mango Dine In|1130|Orange Juice| |107003|Orange Juice| |107003|Beverages|102|Beverages|102|Family Group 107|107|Drinks|107|Standard|7|Standard|7|-89.29|0.00|-89.29|0.00|0.00|0.00|-89.29|0.00|-89.29|1|-89.29|-1|1|0.00|0.00|0.00|44|10
FPMI|DB Avila Mango Dine In|1130|DB Avila Mango Dine In|1130|Four Seasons| |107002|Four Seasons| |107002|Beverages|102|Beverages|102|Family Group 107|107|Drinks|107|Standard|7|Standard|7|49.11|-9.82|39.29|0.00|0.00|0.00|49.11|-9.82|39.29|1|49.11|1|0|0.00|0.00|0.00|41|10
FPMI|DB Avila Mango Dine In|1130|DB Avila Mango Dine In|1130|Spring Roll| |101002|Spring Roll| |101002|Food|101|Food|101|FamGrp-101|101|FamGrp-101|101|Senior Citizen|8|Senior Citizen|8|-78.00|22.29|-55.71|0.00|0.00|0.00|-78.00|22.29|-55.71|1|-78.00|-1|0|0.00|0.00|0.00|50|12
FPMI|DB Avila Mango Dine In|1130|DB Avila Mango Dine In|1130|CP P3.00 Charge| |108002|CP P3.00 Charge| |108002|Food|101|Food|101|Family Group 108|108|Specials|108|PWD|10|PWD|10|3.00|-0.86|2.14|0.00|0.00|0.00|3.00|-0.86|2.14|1|3.00|1|0|0.00|0.00|0.00|60|14
FPMI|DB Avila Mango Dine In|1130|DB Avila Mango Dine In|1130|Spring Roll| |101002|Spring Roll| |101002|Food|101|Food|101|FamGrp-101|101|FamGrp-101|101|Zero Rated|9|Zero Rated|9|78.00|-57.11|20.89|0.00|0.00|0.00|78.00|-57.11|20.89|1|78.00|1|0|0.00|0.00|0.00|67|16
FPMI|DB Avila Mango Dine In|1130|DB Avila Mango Dine In|1130|Spring Roll| |101002|Spring Roll| |101002|Food|101|Food|101|FamGrp-101|101|FamGrp-101|101|Zero Rated|9|Zero Rated|9|-78.00|8.36|-69.64|0.00|0.00|0.00|-78.00|8.36|-69.64|1|-78.00|-1|1|0.00|0.00|0.00|71|17
FPMI|DB Avila Mango Dine In|1130|DB Avila Mango Dine In|1130|Value Meal 2| |111003|Value Meal 2| |111003|Value Meals|103|Value Meals|103|Family Group 106|106|Value Meals|106|Standard|7|Standard|7|282.14|0.00|282.14|0.00|0.00|0.00|282.14|0.00|282.14|1|282.14|2|0|0.00|0.00|0.00|43|10
FPMI|DB Avila Mango Dine In|1130|DB Avila Mango Dine In|1130|Spring Roll| |101002|Spring Roll| |101002|Food|101|Food|101|FamGrp-101|101|FamGrp-101|101|PWD|10|PWD|10|78.00|-44.57|33.43|0.00|0.00|0.00|78.00|-44.57|33.43|1|78.00|1|0|0.00|0.00|0.00|59|14
FPMI|DB Avila Mango Dine In|1130|DB Avila Mango Dine In|1130|Value Meal 2| |111003|Value Meal 2| |111003|Value Meals|103|Value Meals|103|Family Group 106|106|Value Meals|106|PWD|10|PWD|10|158.00|-45.15|112.85|0.00|0.00|0.00|158.00|-45.15|112.85|1|158.00|1|0|0.00|0.00|0.00|61|15
FPMI|DB Avila Mango Dine In|1130|DB Avila Mango Dine In|1130|Crab Pincer| |101003|Crab Pincer| |101003|Food|101|Food|101|FamGrp-101|101|FamGrp-101|101|PWD|10|PWD|10|-85.00|24.29|-60.71|0.00|0.00|0.00|-85.00|24.29|-60.71|1|-85.00|-1|1|0.00|0.00|0.00|63|15
FPMI|DB Avila Mango Dine In|1130|DB Avila Mango Dine In|1130|Value Meal 2| |111003|Value Meal 2| |111003|Value Meals|103|Value Meals|103|Family Group 106|106|Value Meals|106|PWD|10|PWD|10|158.00|-45.15|112.85|0.00|0.00|0.00|158.00|-45.15|112.85|1|158.00|1|0|0.00|0.00|0.00|65|16
FPMI|DB Avila Mango Dine In|1130|DB Avila Mango Dine In|1130|Spring Roll| |101002|Spring Roll| |101002|Food|101|Food|101|FamGrp-101|101|FamGrp-101|101|Senior Citizen|8|Senior Citizen|8|78.00|-22.29|55.71|0.00|0.00|0.00|78.00|-22.29|55.71|1|78.00|1|0|0.00|0.00|0.00|49|12
FPMI|DB Avila Mango Dine In|1130|DB Avila Mango Dine In|1130|Spring Roll| |101002|Spring Roll| |101002|Food|101|Food|101|FamGrp-101|101|FamGrp-101|101|Senior Citizen|8|Senior Citizen|8|78.00|-22.29|55.71|0.00|0.00|0.00|78.00|-22.29|55.71|1|78.00|1|0|0.00|0.00|0.00|51|12
FPMI|DB Avila Mango Dine In|1130|DB Avila Mango Dine In|1130|Orange Juice| |107003|Orange Juice| |107003|Beverages|102|Beverages|102|Family Group 107|107|Drinks|107|Senior Citizen|8|Senior Citizen|8|100.00|-28.56|71.44|0.00|0.00|0.00|100.00|-28.56|71.44|1|100.00|1|0|0.00|0.00|0.00|51|12
FPMI|DB Avila Mango Dine In|1130|DB Avila Mango Dine In|1130|Orange Juice| |107003|Orange Juice| |107003|Beverages|102|Beverages|102|Family Group 107|107|Drinks|107|Standard|7|Standard|7|89.29|0.00|89.29|0.00|0.00|0.00|89.29|0.00|89.29|1|89.29|1|0|0.00|0.00|0.00|42|10
FPMI|DB Avila Mango Dine In|1130|DB Avila Mango Dine In|1130|Spring Roll| |101002|Spring Roll| |101002|Food|101|Food|101|FamGrp-101|101|FamGrp-101|101|Senior Citizen|8|Senior Citizen|8|-78.00|22.29|-55.71|0.00|0.00|0.00|-78.00|22.29|-55.71|1|-78.00|-1|1|0.00|0.00|0.00|52|12
FPMI|DB Avila Mango Dine In|1130|DB Avila Mango Dine In|1130|Value Meal 2| |111003|Value Meal 2| |111003|Value Meals|103|Value Meals|103|Family Group 106|106|Value Meals|106|Senior Citizen|8|Senior Citizen|8|158.00|-45.14|112.86|0.00|0.00|0.00|158.00|-45.14|112.86|1|158.00|1|0|0.00|0.00|0.00|54|13
FPMI|DB Avila Mango Dine In|1130|DB Avila Mango Dine In|1130|Crab Pincer| |101003|Crab Pincer| |101003|Food|101|Food|101|FamGrp-101|101|FamGrp-101|101|PWD|10|PWD|10|85.00|-24.29|60.71|0.00|0.00|0.00|85.00|-24.29|60.71|1|85.00|1|0|0.00|0.00|0.00|63|15
FPMI|DB Avila Mango Dine In|1130|DB Avila Mango Dine In|1130|CP P3.00 Charge| |108002|CP P3.00 Charge| |108002|Food|101|Food|101|Family Group 108|108|Specials|108|Standard|7|Standard|7|-2.68|0.00|-2.68|0.00|0.00|0.00|-2.68|0.00|-2.68|1|-2.68|-1|0|0.00|0.00|0.00|42|10
FPMI|DB Avila Mango Dine In|1130|DB Avila Mango Dine In|1130|Spring Roll| |101002|Spring Roll| |101002|Food|101|Food|101|FamGrp-101|101|FamGrp-101|101|Zero Rated|9|Zero Rated|9|78.00|-49.45|28.55|0.00|0.00|0.00|78.00|-49.45|28.55|1|78.00|1|0|0.00|0.00|0.00|68|16
FPMI|DB Avila Mango Dine In|1130|DB Avila Mango Dine In|1130|Spring Roll| |101002|Spring Roll| |101002|Food|101|Food|101|FamGrp-101|101|FamGrp-101|101|Zero Rated|9|Zero Rated|9|78.00|-8.36|69.64|0.00|0.00|0.00|78.00|-8.36|69.64|1|78.00|1|0|0.00|0.00|0.00|71|17
